<svg xmlns="http://www.w3.org/2000/svg" width="68" height="82.6" viewBox="0 0 68 82.6">
  <metadata><?xpacket begin="﻿" id="W5M0MpCehiHzreSzNTczkc9d"?>
<x:xmpmeta xmlns:x="adobe:ns:meta/" x:xmptk="Adobe XMP Core 5.6-c138 79.159824, 2016/09/14-01:09:01        ">
   <rdf:RDF xmlns:rdf="http://www.w3.org/1999/02/22-rdf-syntax-ns#">
      <rdf:Description rdf:about=""/>
   </rdf:RDF>
</x:xmpmeta>
                                                                                                    
                                                                                                    
                                                                                                    
                                                                                                    
                                                                                                    
                                                                                                    
                                                                                                    
                                                                                                    
                                                                                                    
                                                                                                    
                                                                                                    
                                                                                                    
                                                                                                    
                                                                                                    
                                                                                                    
                                                                                                    
                                                                                                    
                                                                                                    
                                                                                                    
                                                                                                    
                           
<?xpacket end="w"?></metadata>
<defs>
    <style>
      .cls-1 {
        fill: #cecece;
        fill-rule: evenodd;
      }
    </style>
  </defs>
  <path id="_5_copy" data-name="5 copy" class="cls-1" d="M1865.86,12051H1856v-3h9.86a7,7,0,0,0,7.07-6.9v-1.2a7,7,0,0,0-7.07-6.9h-6.19v-3h6.19a10.008,10.008,0,0,1,10.14,9.9v1.2A10.008,10.008,0,0,1,1865.86,12051Zm-13.86,18h-33a2.286,2.286,0,0,1-1.78-1.6l-9.19-46.6a1.589,1.589,0,0,1,.31-1.3,1.393,1.393,0,0,1,1.16-.6h52.12a1.406,1.406,0,0,1,1.16.6,1.664,1.664,0,0,1,.31,1.3l-9.19,46.6A1.954,1.954,0,0,1,1852,12069Zm-32-3h31l8.79-44H1812Zm37.52-28H1820.5a1.5,1.5,0,0,1,0-3h37.02A1.5,1.5,0,0,1,1857.52,12038Zm-29.72-25.2a1.406,1.406,0,0,1-1.13-.6,1.487,1.487,0,0,1,.14-2.1,4.813,4.813,0,0,0,1.96-3.1,3.094,3.094,0,0,0-1.13-2.2,6.355,6.355,0,0,1-2.2-5.1,7.4,7.4,0,0,1,2.77-5,1.467,1.467,0,0,1,2.1.3,1.5,1.5,0,0,1-.26,2.1,4.574,4.574,0,0,0-1.62,2.8,3.914,3.914,0,0,0,1.31,2.8,6.129,6.129,0,0,1,2.03,4.4c-0.05,1.8-1.05,3.6-2.98,5.3A1.867,1.867,0,0,1,1827.8,12012.8Zm13.92,0a1.406,1.406,0,0,1-1.13-.6,1.487,1.487,0,0,1,.14-2.1,4.813,4.813,0,0,0,1.96-3.1,3.074,3.074,0,0,0-1.14-2.2,6.377,6.377,0,0,1-2.19-5.1,7.357,7.357,0,0,1,2.77-5,1.468,1.468,0,0,1,2.1.3,1.51,1.51,0,0,1-.26,2.1,4.618,4.618,0,0,0-1.63,2.8,4,4,0,0,0,1.31,2.8,6.053,6.053,0,0,1,2.03,4.4c-0.04,1.8-1.05,3.6-2.97,5.3A1.867,1.867,0,0,1,1841.72,12012.8Zm16.8,64.2H1812.5a1.5,1.5,0,0,1,0-3h46.02A1.5,1.5,0,0,1,1858.52,12077Z" transform="translate(-1808 -11994.4)"/>
</svg>
