<svg xmlns="http://www.w3.org/2000/svg" width="54.22" height="83.7" viewBox="0 0 54.22 83.7">
  <metadata><?xpacket begin="﻿" id="W5M0MpCehiHzreSzNTczkc9d"?>
<x:xmpmeta xmlns:x="adobe:ns:meta/" x:xmptk="Adobe XMP Core 5.6-c138 79.159824, 2016/09/14-01:09:01        ">
   <rdf:RDF xmlns:rdf="http://www.w3.org/1999/02/22-rdf-syntax-ns#">
      <rdf:Description rdf:about=""/>
   </rdf:RDF>
</x:xmpmeta>
                                                                                                    
                                                                                                    
                                                                                                    
                                                                                                    
                                                                                                    
                                                                                                    
                                                                                                    
                                                                                                    
                                                                                                    
                                                                                                    
                                                                                                    
                                                                                                    
                                                                                                    
                                                                                                    
                                                                                                    
                                                                                                    
                                                                                                    
                                                                                                    
                                                                                                    
                                                                                                    
                           
<?xpacket end="w"?></metadata>
<defs>
    <style>
      .cls-1 {
        fill: #cecece;
        fill-rule: evenodd;
      }
    </style>
  </defs>
  <path id="_2_copy" data-name="2 copy" class="cls-1" d="M1062.01,12076h-3v-13h3v13Zm12.55,1h-28.1a1.5,1.5,0,0,1,0-3h28.1A1.5,1.5,0,0,1,1074.56,12077Zm-14.01-17.4h-0.21c-6.01,0-14.15-1.2-18.81-6.9-3.26-4-4.26-9.5-2.99-16.4,2.3-12.4,2.43-29.7,2.43-29.9a1.4,1.4,0,0,1,1.42-1.4h36.15a1.4,1.4,0,0,1,1.42,1.4c0,0.2.13,17.5,2.43,29.9,1.27,6.9.27,12.4-3,16.4C1074.73,12058.4,1066.57,12059.6,1060.55,12059.6ZM1044,12008c-0.09,4.5-.71,18.3-2.66,28.8q-1.68,9.15,2.38,14.1c3.95,4.8,11.22,5.8,16.62,5.8h0.21c5.42,0,12.7-1,16.66-5.8q4.05-4.95,2.38-14.1c-1.95-10.5-2.5-24.3-2.59-28.8h-33Zm46.79,5.7a1.269,1.269,0,0,1-.61-0.1l-34.68-16.7a1.484,1.484,0,0,1,.56-2.8l21.66-.8a1.415,1.415,0,0,1,1.18.6l13.02,17.5a1.482,1.482,0,0,1-.03,1.8A1.55,1.55,0,0,1,1090.79,12013.7Zm-28.83-16.9,24.21,11.7-9.09-12.3Zm2.24,28.1a1.417,1.417,0,0,1-.61-0.2,1.4,1.4,0,0,1-.66-1.9l9.26-19.4a1.358,1.358,0,0,1,1.9-.6,1.42,1.42,0,0,1,.66,1.9l-9.27,19.4A1.423,1.423,0,0,1,1064.2,12024.9Zm-5.29,27.6h-0.07c-5.44-.3-9.31-1.8-11.51-4.7-2.85-3.7-1.98-8.2-1.64-9.9l0.02-.2c0.43-2.2,1.67-13.9,1.69-14a1.956,1.956,0,0,1,1.6-1.7h29c0.78,0,2.38,1,2.38,1.8a1.208,1.208,0,0,1-1.38,1.2h-29c-0.34,3.2-1.13,11.3-1.5,13.3l-0.03.1c-0.28,1.5-.96,5,1.1,7.6,1.67,2.2,4.83,3.4,9.41,3.6a1.454,1.454,0,0,1,1.35,1.5A1.434,1.434,0,0,1,1058.91,12052.5Z" transform="translate(-1038 -11993.3)"/>
</svg>
