<svg id="_3" data-name="3" xmlns="http://www.w3.org/2000/svg" width="56" height="56" viewBox="0 0 56 56">
  <metadata><?xpacket begin="﻿" id="W5M0MpCehiHzreSzNTczkc9d"?>
<x:xmpmeta xmlns:x="adobe:ns:meta/" x:xmptk="Adobe XMP Core 5.6-c138 79.159824, 2016/09/14-01:09:01        ">
   <rdf:RDF xmlns:rdf="http://www.w3.org/1999/02/22-rdf-syntax-ns#">
      <rdf:Description rdf:about=""/>
   </rdf:RDF>
</x:xmpmeta>
                                                                                                    
                                                                                                    
                                                                                                    
                                                                                                    
                                                                                                    
                                                                                                    
                                                                                                    
                                                                                                    
                                                                                                    
                                                                                                    
                                                                                                    
                                                                                                    
                                                                                                    
                                                                                                    
                                                                                                    
                                                                                                    
                                                                                                    
                                                                                                    
                                                                                                    
                                                                                                    
                           
<?xpacket end="w"?></metadata>
<defs>
    <style>
      .cls-1 {
        fill: #c70b6a;
      }

      .cls-2 {
        fill: #fff;
        fill-rule: evenodd;
      }
    </style>
  </defs>
  <circle class="cls-1" cx="28" cy="28" r="28"/>
  <path class="cls-2" d="M1685.64,11761.5a14.832,14.832,0,0,0,6.6-1.1,9.655,9.655,0,0,0,2.65-1.4,8.07,8.07,0,0,1-2.74-.7,5.731,5.731,0,0,1-3.02-3.1c-0.13-.3-0.13-0.3.24-0.3a5.6,5.6,0,0,0,2.32-.1c-0.55-.2-1.06-0.3-1.49-0.5a5.968,5.968,0,0,1-3.43-5c-0.02-.3.06-0.3,0.32-0.2a6.562,6.562,0,0,0,2.48.7,6.369,6.369,0,0,0-1.07-.9,5.743,5.743,0,0,1-1-6.7c0.16-.2.22-0.2,0.43,0a18.883,18.883,0,0,0,11.05,5.7,6.743,6.743,0,0,1,1.41.1c0.31,0.1.35-.1,0.3-0.3a5.711,5.711,0,0,1,3.15-6.1,6.6,6.6,0,0,1,7.46.9,0.594,0.594,0,0,0,.69.1,9.961,9.961,0,0,0,3.35-1.2,0.329,0.329,0,0,0,.27-0.1,5.7,5.7,0,0,1-2.67,3.2,12.768,12.768,0,0,0,3.41-.8,0.477,0.477,0,0,1-.15.3,13.321,13.321,0,0,1-2.63,2.5,0.441,0.441,0,0,0-.24.5,16.029,16.029,0,0,1-4.37,11.3,17.487,17.487,0,0,1-10.58,5.5,19.659,19.659,0,0,1-12.61-2.3h-0.13Z" transform="translate(-1672 -11724)"/>
</svg>
