<svg id="_6" data-name="6" xmlns="http://www.w3.org/2000/svg" width="56" height="56" viewBox="0 0 56 56">
  <metadata><?xpacket begin="﻿" id="W5M0MpCehiHzreSzNTczkc9d"?>
<x:xmpmeta xmlns:x="adobe:ns:meta/" x:xmptk="Adobe XMP Core 5.6-c138 79.159824, 2016/09/14-01:09:01        ">
   <rdf:RDF xmlns:rdf="http://www.w3.org/1999/02/22-rdf-syntax-ns#">
      <rdf:Description rdf:about=""/>
   </rdf:RDF>
</x:xmpmeta>
                                                                                                    
                                                                                                    
                                                                                                    
                                                                                                    
                                                                                                    
                                                                                                    
                                                                                                    
                                                                                                    
                                                                                                    
                                                                                                    
                                                                                                    
                                                                                                    
                                                                                                    
                                                                                                    
                                                                                                    
                                                                                                    
                                                                                                    
                                                                                                    
                                                                                                    
                                                                                                    
                           
<?xpacket end="w"?></metadata>
<defs>
    <style>
      .cls-1 {
        fill: #c70b6a;
      }

      .cls-2 {
        fill: #fff;
        fill-rule: evenodd;
      }
    </style>
  </defs>
  <circle class="cls-1" cx="28" cy="28" r="28"/>
  <path class="cls-2" d="M1915,11738h10.57c2.14,0,3.77.1,4.87,0.2a8.59,8.59,0,0,1,3.1,1.1,5.32,5.32,0,0,1,2.34,2.2,6.374,6.374,0,0,1,.78,3.2,6.624,6.624,0,0,1-1.07,3.8,6.929,6.929,0,0,1-2.94,2.5v0.1a7.828,7.828,0,0,1,4.32,2.3,6.606,6.606,0,0,1,1.63,4.7,8.193,8.193,0,0,1-.82,3.8,7.539,7.539,0,0,1-2.22,2.7,8.636,8.636,0,0,1-3.62,1.8,17.424,17.424,0,0,1-5,.6H1915v-29h0Zm7,5v7h1.11a24.8,24.8,0,0,0,3.16-.1,4.324,4.324,0,0,0,1.87-.4,2.967,2.967,0,0,0,1.45-1.3,4.62,4.62,0,0,0,.4-1.9,3.7,3.7,0,0,0-.43-1.7,3.04,3.04,0,0,0-1.36-1.2,6.171,6.171,0,0,0-2.05-.4H1922Zm0,12v7h4.61a10.271,10.271,0,0,0,2.36-.5,2.963,2.963,0,0,0,1.55-1.3,3.273,3.273,0,0,0,.49-1.8,3.229,3.229,0,0,0-.58-2,3.161,3.161,0,0,0-1.75-1.1,5.054,5.054,0,0,0-1.94-.3H1922Z" transform="translate(-1897 -11724)"/>
</svg>
